Time: 2017-07-10 23:26:44
	Precipitation probability in %: 0.0
	Temperature: 11.84
-------------------------------------------------------
Next hour: 2017-07-11 00:00:00
	Precipitation probability in %: 3.0
	Temperature: 11.67
Time: 2017-07-11 00:26:45
	Precipitation probability in %: 0.0
	Temperature: 11.67
-------------------------------------------------------
Next hour: 2017-07-11 01:00:00
	Precipitation probability in %: 11.0
	Temperature: 11.55
Time: 2017-07-11 01:26:50
	Precipitation probability in %: 67.0
	Temperature: 11.8
-------------------------------------------------------
Next hour: 2017-07-11 02:00:00
	Precipitation probability in %: 17.0
	Temperature: 11.78
Time: 2017-07-11 02:26:51
	Precipitation probability in %: 0.0
	Temperature: 11.78
-------------------------------------------------------
Next hour: 2017-07-11 03:00:00
	Precipitation probability in %: 13.0
	Temperature: 11.87
Time: 2017-07-11 03:26:53
	Precipitation probability in %: 0.0
	Temperature: 11.87
-------------------------------------------------------
Next hour: 2017-07-11 04:00:00
	Precipitation probability in %: 14.0
	Temperature: 11.96
Time: 2017-07-11 04:26:59
	Precipitation probability in %: 1.0
	Temperature: 11.96
-------------------------------------------------------
Next hour: 2017-07-11 05:00:00
	Precipitation probability in %: 23.0
	Temperature: 11.77
Time: 2017-07-11 05:27:05
	Precipitation probability in %: 5.0
	Temperature: 11.77
-------------------------------------------------------
Next hour: 2017-07-11 06:00:00
	Precipitation probability in %: 12.0
	Temperature: 11.43
Time: 2017-07-11 06:27:06
	Precipitation probability in %: 22.0
	Temperature: 11.45
-------------------------------------------------------
Next hour: 2017-07-11 07:00:00
	Precipitation probability in %: 13.0
	Temperature: 11.39
